{
		"entries":[
		{
				"filename":"alyssa-calling-the-fire-department",
				"title":"Alyssa: Calling The Fire Department",
				"date":"2013-11-29 12:45:46",
				"lyric":"",
				"duration":"4:52"
		},
		{
				"filename":"caleb-jokes",
				"title":"Caleb: Jokes",
				"date":"2014-01-03 19:12:07",
				"lyric":"",
				"duration":"4:16"
		},
		{
				"filename":"eleanor-and-dean-misunderstand-game",
				"title":"Eleanor: Misunderstand Game",
				"date":"2014-07-04 19:26:56",
				"lyric":"",
				"duration":"1:22"
		},
		{
				"filename":"eleanor-pool-liner",
				"title":"Eleanor: Pool Liner",
				"date":"2014-06-29 11:20:34",
				"lyric":"",
				"duration":"0:31"
		},
		{
				"filename":"emma-camp-nicknames",
				"title":"Emma: Camp Nicknames",
				"date":"2014-06-28 20:25:31",
				"lyric":"",
				"duration":"1:18"
		},
		{
				"filename":"how-to-live-a-good-life-fiona-and-neve-censored",
				"title":"How To Live A Good Life: Fiona  and Neve (Censored)",
				"date":"2013-12-31 21:36:01",
				"lyric":"",
				"duration":"13:25"
		},
		{
				"filename":"how-to-live-a-good-life-fiona-and-neve",
				"title":"How To Live A Good Life: Fiona  and Neve",
				"date":"2014-12-31 21:36:01",
				"lyric":"",
				"duration":"14:25"
		},
		{
				"filename":"how-to-live-a-good-life-olivia",
				"title":"Olivia: How To Life A Good Life",
				"date":"2013-01-05 10:27:00",
				"lyric":"",
				"duration":"4:51"
		},
		{
				"filename":"kian-how-to-live-a-good-life",
				"title":"How To Live A Good Life: Kian",
				"date":"2014-08-08 20:36:45",
				"lyric":"",
				"duration":"3:53"
		},
		{
				"filename":"twenty-reasons-why-neve-loves-fiona",
				"title":"Twenty Reasons Why Neve Loves Fiona",
				"date":"2013-09-01 11:50:36",
				"lyric":"",
				"duration":"1:04"
		}	
	 ], 
	"timestamp":"2014-10-13_4-14-34"	
	 
 }