{
		"entries":[
		{
				"filename":"caleb-jokes",
				"title":"Caleb: Jokes",
				"date":"2014-01-03 19:12:07",
				"lyric":"",
				"duration":"4:16"
		},
		{
				"filename":"eleanor-pool-liner",
				"title":"Eleanor: Pool Liner",
				"date":"2014-06-29 11:20:34",
				"lyric":"",
				"duration":"0:31"
		},
		{
				"filename":"emma-camp-nicknames",
				"title":"Emma: Camp Nicknames",
				"date":"2014-06-28 20:25:31",
				"lyric":"",
				"duration":"1:18"
		},
		{
				"filename":"kian-how-to-live-a-good-life",
				"title":"How To Live A Good Life: Kian",
				"date":"2014-08-08 20:36:45",
				"lyric":"",
				"duration":"3:53"
		},
		{
				"filename":"how-to-live-a-good-life-fiona-and-neve",
				"title":"How To Live A Good Life: Fiona  and Neve",
				"date":"2014-12-31 21:36:01",
				"lyric":"",
				"duration":"14:25"
		},
		{
				"filename":"eleanor-and-dean-misunderstand-game",
				"title":"Eleanor: Misunderstand Game",
				"date":"2014-07-04 19:26:56",
				"lyric":"",
				"duration":"1:22"
		},
		{
				"filename":"alyssa-calling-the-fire-department",
				"title":"Alyssa: Calling The Fire Department",
				"date":"2013-11-29 12:45:46",
				"lyric":"Nayt: Uh, hello, is this the police?<br>Alyssa: Yes.<br>Nayt: Hi police, uh, I've got a problem.<br>Alyssa: What?<br>Nayt: It started snowing.<br>Alyssa: What?<br>Nayt: It started snowing at my house and I don't want it to snow.<br>Alyssa: Uh, we don't do snow problems.<br>Nayt: You don't?<br>Alyssa: No.<br>Nayt: What can I do?<br>Alyssa: You, uh, here Nayt, pretent that, uh, you should have a new name in this.<br>Nayt: Okay what's my new name?<br>Alyssa: ...in this game.<br>Nayt: A new name and what?<br>Alyssa: In this game.<br>Nayt: Oh, what's my new name?<br>Alyssa: Uh your new name is... Phone Property Guy.<br>Nayt: Stone Property Guy?<br>Alyssa: Phone Property Guy!<br>Nayt: Phone Property Guy?<br>Alyssa: Yeah.<br>Nayt: Uh, hello, is this the police?<br>Alyssa: Yes.<br>Nayt: This is Phone Property Guy.<br>Alyssa: Yes?<br>Nayt: Um, I'm having a problem with my phone.<br>Alyssa: What?<br>Nayt: I tried to build a house in my phone, and when I tried to call my home, I got a message saying that my property wasn't big enough for me to live in.<br>Alyssa: Oh, that's really a big problem. <br>Nayt: It is.<br>Alyssa: That's probably because you have too much cats.<br>Nayt: We, well, I have seven, is that too many?<br>Alyssa: Yes.<br>Nayt: How many can I have?<br>Alyssa: Only one.<br>Nayt: Well what I going to do with these other cats?<br>Alyssa: Uh, you can just, just call them, call me and I'll get the fire department to put the cats on each ladder step.<br>Nayt: Okay.<br>Alyssa: One right here, one right here, what, one right here, one right here, one right here.<br>Nayt: That's a great solution. Um, okay, let me call you back. Hello?<br>Alyssa: Hi.<br>Nayt: Um, yeah, do you have a ladder?<br>Alyssa: Yeah.<br>Nayt: Becasue I've got a problem. I've got seven cats but I'm only allowed to have one.<br>Alyssa: Okay.<br>Nayt: And I was wondering if you can put the cats one on each step of the ladder so I can live in my house.<br>Alyssa: Um, I don't think we can do that but maybe we can.<br>Nayt: Okay. Now do you have a ladder?<br>Alyssa: Mmm, yeah.<br>Nayt: Do you have a cat ladder?<br>Alyssa: Mmm, no but they can be on our fire ladder.<br>Nayt: They can be on your fire ladder?<br>Alyssa: Mmm-hmm.<br>Nayt: Well, do they have to help with putting out fires?<br>Alyssa: Oh yeah.<br>Nayt: That's good because they've been in training. 'Cause you know how cats don't like water? Well cats don't like water, did you know that? <br>Alyssa: No.<br>Nayt: Well they don't like water. But you know what that means?<br>Alyssa: What?<br>Nayt: They love fire.<br>Alyssa: Ohhh.<br>Nayt: So they would really like to work for the fire department. And be on your ladder.<br>Alyssa: Ohh. <br>Nayt: Do they have to pay rent?<br>Alyssa: Um, do they have paws?<br>Nayt: What?<br>Alyssa: Do they have paws?<br>Nayt: Yeah they have paws.<br>Alyssa: And claws?<br>Nayt: Yeah, they all have claws.<br>Alyssa: And teeth.<br>Nayt: Yup.<br>Alyssa: And fur?<br>Nayt: Yup. But one of them doesn't have fur.<br>Alyssa: Okay.<br>Nayt: It got burned off in a fire.<br>Alyssa: You can have that one.<br>Nayt: That's the only on I, that's the one I have to keep?<br>Alyssa: Mmm-hmm.<br>Nayt: Now, these cats they all have, umm, fire proof fur. Is that good or bad?<br>Alyssa: Uhh, good.<br>Nayt: Why is it good?<br>Alyssa: Because they can, umm, they can help me put out the fire as long as they be careful 'cause it, 'cause we take care of a really big fire... <br>Nayt: Yeah?<br>Alyssa: And that fire is so big that they have to go on the, go on ladder, save people- they can't help with the fire. <br>Nayt: No?<br>Alyssa: Fire people can.<br>Nayt: Okay.<br>Alyssa: Not the cats.<br>Nayt: Wait, so the cats help, help save people but they can't try to put out the fire?<br>Alyssa: No.<br>Nayt: Okay.<br>Alyssa: They'll get burnt.<br>Nayt: Okay. Now can cats save only people or can they save other cats too?<br>Alyssa: They can save dogs.<br>Nayt: They can save dogs?<br>Alyssa: Mmm-hmm.<br>Nayt: Will the dogs, won't the dogs be afraid of them?<br>Alyssa: No. <br>Nayt: Hmm.<br>Alyssa: As long as my puppy, he can help the other cats. <br>Nayt: Yeah?<br>Alyssa: Mmm-hmm.<br>Nayt: I'll tell him. Thank you.<br>Alyssa: You're welcome.",
				"duration":"4:52"
		},
		{
				"filename":"how-to-live-a-good-life-olivia",
				"title":"How To Life A Good Life: Olivia",
				"date":"2013-01-05 10:27:00",
				"lyric":"",
				"duration":"4:51"
		},
		{
				"filename":"twenty-reasons-why-neve-loves-fiona",
				"title":"Twenty Reasons Why Neve Loves Fiona",
				"date":"2013-09-01 11:50:36",
				"lyric":"Twenty reason why Neve Loves Fiona.<br>1. She's nice<br>2. Sweet<br>3. Sophisticated<br>4. Awesome <br>5. Cool<br>6. Wow<br>7. The best<br>8. Nice<br>9. Funny<br>10. Pretty<br>11. Her heart is big like a hammer<br>12. Nice drawings<br>13. Good friend<br>14. Her hair is pretty<br>15. Gives<br>16. She's blessed<br>17. A good person<br>18. She's healthy<br>19. She loves me<br>20. Awesome person",
				"duration":"1:04"
		}	
	 ], 
	"timestamp":"2014-10-14_13-19-17"	
	 
 }