{
		"entries":[
		{
				"filename":"inspirational-streetwise-2012-01-25",
				"title":"Have A Good Day People",
				"date":"2012-01-25",
				"lyric":"Empowerment for those who want to help themselves in 2012. <br>I don't sell homelessness, I sell Streetwise for a living. <br>A hand up, not a cup out. <br>Streetwise, have a good day people.",
				"duration":"0:19"
		},
		{
				"filename":"inspirational-streetwise-2012-01-30",
				"title":"Not Woke Yet?",
				"date":"2012-01-30",
				"lyric":"It's a tad bit windy but allegedly it's suppose to get up to about forty something degrees today. <br>Whooo! <br>StreetWise Magazine. <br>Good morning ladies. <br>Hope everyone had a wonderful weekend. <br>Not woke yet? <br>StreetWise Magazines. <br>You guys have a good day. <br>Stay warm, stay wise. <br>StreetWise Magazines. <br>A merger to end homelessness.  <br>Read about it inside this week issue. <br>You guys have a good day.",
				"duration":"0:51"
		},
		{
				"filename":"inspirational-streetwise-2012-02-02",
				"title":"Naw, That's My Heart",
				"date":"2012-02-02",
				"lyric":"Now don't everybody crowd me at one time.  <br>I have enough magazines for everyone. <br>And how were you this morning? <br>Eee! <br>Naw, that's my heart DO-DO-DO-DO (laughs).",
				"duration":"0:18"
		},
		{
				"filename":"inspirational-streetwise-2012-02-03",
				"title":"Be Sure To Cheer The Patriots On",
				"date":"2012-02-03",
				"lyric":"And be sure to cheer the Patriots on.  <br>Even though it's just a formality. <br>(Subliminal messaging): Patriots are the world champions! <br>Have a good day.",
				"duration":"0:16"
		},
		{
				"filename":"inspirational-streetwise-2012-02-06",
				"title":"Reviews of Reviews!",
				"date":"2012-02-06",
				"lyric":"Good morning people. <br>Hope everyone had a wonderful weekend, I know it was too short.  <br>Like the Superbowl. <br>Good morning. <br>StreeetWise, Magazines. <br>Crosswords, sudoku, entertainment, book reviews, movie reviews.  <br>Reviews of reviews! <br>You guys have a good day.",
				"duration":"0:39"
		},
		{
				"filename":"inspirational-streetwise-2012-02-07",
				"title":"I Sell StreetWise For A Living",
				"date":"2012-02-07",
				"lyric":"I sell StreetWise for a living. <br>You guys have a great day. <br>Good morning. <br>And how are you today?",
				"duration":"0:18"
		},
		{
				"filename":"inspirational-streetwise-2012-02-08",
				"title":"I Can't Be Sad",
				"date":"2012-02-08",
				"lyric":"Don't be afraid to get your Valentines Day StreetWise.  <br>Hot off the press, warm to the touch.  <br>StreetWise Magazines.  <br>Good morning.  <br>You guys stay warm today.  <br>Stay wise!  <br>Morning, how are you? Yeah.   <br>Hot off the press, warm to the touch.  <br>How are you this morning?  <br>Passerby: Good, how are you?  <br>Good&#8212; every morning. I just can't help it. Haha, okay. I don't know, I just can't help it, I can't be sad. I try to think of something to put a bright smile on your face.",
				"duration":"0:54"
		},
		{
				"filename":"inspirational-streetwise-2012-02-09",
				"title":"Stay Warm",
				"date":"2012-02-09",
				"lyric":"Have a good day, stay warm. <br>Good morning. <br>StreetWise Magazines. <br>Good morning. <br>Have a good day. <br>Stay warm. <br>Morning, sir.  <br>(whistling) <br>Yep, got to put those gloves on (laughs).",
				"duration":"0:42"
		},
		{
				"filename":"inspirational-streetwise-2012-02-10",
				"title":"Happy Be-earlied Valentine",
				"date":"2012-02-10",
				"lyric":"Hello, good morning. <br>You guys have a great day, stay warm, have a great weekend. <br>And to all you ladies, happy be-earlied Valentine. <br>Hey, I got it in first, so everything else is second. <br>I'm Keith, you can tell them, Keith beat you to it (laughs). <br>Good morning. <br>Mmm, and you guys, don't forget what Tuesday is, hint-hint. <br>StreeetWise Magazines. <br>Good morning. <br>Well happy be-earlied Valentine to you. (laughs) <br>I'm first so I beat 'em. Everything else is second. Oh, can you imagine the  expression on the guy's face:  <br>'Oh baby, happy Val&#8212;'  <br>'Oh baby, you're late. Keith beat you to it.'",
				"duration":"1:04"
		},
		{
				"filename":"inspirational-streetwise-2012-02-17",
				"title":"Happy Friday",
				"date":"2012-02-17",
				"lyric":"...get that first cup of coffee. <br>Good morning. <br>Happy Friday, you guys have a good day.<br>Thank you.",
				"duration":"0:11"
		},
		{
				"filename":"inspirational-streetwise-2012-02-22",
				"title":"Check The Dates Before It's Too Late",
				"date":"2012-02-22",
				"lyric":"Crossword, sudoku, entertainment, theater reviews, event calendars.<br>I've got something of you!<br>A better way- redesigning black entrepreneurship.<br>When in doubt you're welcome to check one out.<br>You can check the dates before it's too late.<br>Good morning.<br>You guys have a good day.<br>Stay warm, stay dry.<br>StreetWise.<br>Good morning, how are you today?<br>I'm good, I'm good, happy Ash Wednesday.<br>Yeah.<br>You guys have a  good day.<br>Hot off the press, warm to the touch.",
				"duration":"1:01"
		},
		{
				"filename":"inspirational-streetwise-2012-03-01",
				"title":"Just My Coffee Cup",
				"date":"2012-03-01",
				"lyric":"Hot off the press, warm to the touch.<br>You don't have to be afraid to purchase one from me these days.<br>If you have nothing to do, I've got something for you!<br>Crosswords, sudoku, entertainment, theater, even calendars.<br>When in doubt you're welcome to check one out.<br>You can check the dates before it's too late.<br>And if you like you can check out my badge before you have to give up your cash.<br>StreetWise.<br>I have a hand up not a cup out.<br>Just my coffee cup.<br>StreetWise.",
				"duration":"0:50"
		},
		{
				"filename":"inspirational-streetwise-2012-03-07",
				"title":"Forget All About Them Troubles",
				"date":"2012-03-07",
				"lyric":"Good morning.<br>It's okay to smile today. <br>Check out the weather, man.<br>It's the middle of the week, weather's nice, come on, that's something to smile about.<br>You know? <br>Make you forget all about them troubles for a couple of minutes.<br>Hahaha.<br>Just a couple minutes, okay?<br>You have a good day.<br>Morning.<br>Don't be afraid to stop and purchase one today.<br>Hot off the press, warm to the touch.<br>Not me, the magazines.<br>StreewWise Magazines.<br>Can TV give a non-profit organizations a televised voice?<br>Crosswords, sudoku, theater, event calendars.<br>All inside his week issue, and more.<br>You folks have a good day and enjoy this lovely weather.",
				"duration":"1:06"
		},
		{
				"filename":"inspirational-streetwise-2012-03-14",
				"title":"So Many Sad Faces, I Don't See How",
				"date":"2012-03-14",
				"lyric":"Yeah. It's a beautiful morning out here.<br>But there's so many sad faces, I don't see how.<br>Good morning, how are you?<br>Can I interest you in one today?<br>No problem.<br>One day. Alright? One day.<br>Hot off the press, warm to the touch.<br>Crossword, sudoku, entertainment.<br>Girl Scouts celebrating 100 years of existence.<br>Have a great day.<br>Good morning.",
				"duration":"0:38"
		},
		{
				"filename":"inspirational-streetwise-2012-03-20",
				"title":"You Guys Enjoy The Weather While It Lasts",
				"date":"2012-03-20",
				"lyric":"You guys enjoy the weather while it lasts.<br>Have a good day.",
				"duration":"0:09"
		},
		{
				"filename":"inspirational-streetwise-2012-04-11",
				"title":"I Don't Run With Nobody, For Nobody, And From Nobody",
				"date":"2012-04-11",
				"lyric":"I can't wait for it to just break. <br>Yeah, neither can I, neither can I. I'll be one person to really appreciate it. <br>Good morning. <br>StreetWise Magazines. <br>Hot off the press warm to the touch. <br>The cover story this week &quot;Back on my feet&quot;. <br>Hey! Thank you. You need some change? Okay, thank you. <br>Yeah, that marathon, the marathon runners back on their feet. <br>No, I watch them, I ain't fittin' to do it.  <br>I don't run with nobody, for nobody, and from nobody. (Laughs)  <br>Keep it simple. <br>Have a good day. <br>Huh? Yeah, yeah, oh yeah, you know got enough layers on.  <br>My hands, I forgot my gloves again.",
				"duration":"1:05"
		},
		{
				"filename":"inspirational-streetwise-2012-04-13",
				"title":"I End It On A Good Note, I Wake Up On A Happier Note",
				"date":"2012-04-13",
				"lyric":"It's all good. I'm gonna work it until it works. <br>I'm blessed and... how are you? <br>Hey, beginning to... I open my eyes and it's the beginning of a good day. It is, it truly is. If I end it on a good note I wake up on a happier note. <br>That's what's happenin'. <br>Good morning. Don't be afraid to purchase one today. <br>Hot off the press, warm to the touch. <br>I have a hand up not a cup out. <br>I don't sell homelessness, I see StreetWise for a living, <br>You all don't have to crowd me, I have enough magazines for everybody.",
				"duration":"0:53"
		},
		{
				"filename":"inspirational-streetwise-2012-04-20",
				"title":"Have A Super Weekend",
				"date":"2012-04-20",
				"lyric":"Hot off the press, warm to the touch.<br>Not me, the magazine.<br>Happy Friday everyone, yay!<br>And the crowd goes wild.<br>You guys have a great day, have a super weekend.<br>And remember you don't have to be afraid to purchase one from me today.<br>I have a hand up, not a cup out.<br>Just my coffee today.<br>StreeWise Magazines.<br>Good morning.<br>Hello, how are you today?<br>Good?<br>You have a great day, have a super weekend.<br>StreetWise.<br>&#8230;umbrella, hahahha.",
				"duration":"1:05"
		},
		{
				"filename":"inspirational-streetwise-2012-04-27",
				"title":"All These Sad Faces, Folks It's Friday!",
				"date":"2012-04-27",
				"lyric":"A hand up, not a cup out.<br>Don't be afraid to step over here today.<br>Good morning.<br>No pushing and shoving, the line starts over here on the right.<br>Chicago summer festivals.<br>From June 1st to September 30th.<br>Read about 'em.<br>Plan your summer itinerary with StreetWise Magazines.<br>When you say you have nothing to do, I've got something for you.<br>StreetWi&#8230; all these sad faces, folks it's Friday, man, yayyyy!",
				"duration":"0:49"
		},
		{
				"filename":"inspirational-streetwise-2012-05-14",
				"title":"Happy Belated Mother's Day",
				"date":"2012-05-14",
				"lyric":"Get this  week issue of StreetWise.<br>Mother's Day issue.<br>Crossword, sudoku, theater, event calendars.<br>When you find yourself with nothing to do I've got something for you.<br>You guys have a great day, happy belated Mother's Day.",
				"duration":"0:21"
		},
		{
				"filename":"inspirational-streetwise-2012-05-21",
				"title":"The Line Starts Behind This Gentleman",
				"date":"2012-05-21",
				"lyric":"I hope you all had a nice weekend. <br>Good morning sir, can I interest you today? <br>Crossword, sudoku, theater, event calendar. <br>Now you guys don't have to bum-rush me, I only have a few magazines left. <br>The line starts on the right behind this gentleman with the striped shirt on (wheezing laugh). <br>You guys have a great day. <br>And I'll see you tomorrow and remember, you don't have to be afraid to purchase one from me today. <br>Global Chicago. <br>In this week issue, crossword, sudoku, theater, event calendars. A little something for everyone. <br>I hope you guys have a good day today. <br>I'm glad this NATO stuff is over with.",
				"duration":"0:57"
		},
		{
				"filename":"inspirational-streetwise-2012-07-18",
				"title":"Have A Great Day People",
				"date":"2012-07-18",
				"lyric":"Good morning.<br>StreetWise Magazines.<br>Hello Bob.<br>&#8230;pride, read about 'em in this week issue of StreetWise Magazines.<br>Theater, event calendars, crossword, sudoku.<br>When you find yourself with nothing to do, I've got something for you.<br>Gave a great day people.<br>Happy hum Wednesday. Yay!<br>StreetWise Magazines.<br>Good morning.",
				"duration":"0:56"
		},
		{
				"filename":"inspirational-streetwise-2012-07-20",
				"title":"The Crowd Goes Wild",
				"date":"2012-07-20",
				"lyric":"Yay! <br>In a few more hours the crowd goes wild.<br>Pandemonium's everywhere.<br>You guys have a great day, have a great weekend.<br>And remember you don't have to be afraid to step over...",
				"duration":"0:19"
		}	
	 ], 
	"timestamp":"2013-08-22_8-28-09"	
	 
 }